^D:\ONEDRIVE\STUDIA\PROJEKTOWANIE WARSTWY WIZUALNEJ GRY\ZADANIA\ZESTAW 2\ZADANIE 2\OPENGL_PROJECT_5_01\STDAFX.CPP
D:\ONEDRIVE\STUDIA\PROJEKTOWANIE WARSTWY WIZUALNEJ GRY\ZADANIA\ZESTAW 2\ZADANIE 2\OPENGL_PROJECT_5_01\RELEASE\OPENGL_PROJECT_5_01.PCH
D:\ONEDRIVE\STUDIA\PROJEKTOWANIE WARSTWY WIZUALNEJ GRY\ZADANIA\ZESTAW 2\ZADANIE 2\OPENGL_PROJECT_5_01\RELEASE\VC120.PDB
D:\ONEDRIVE\STUDIA\PROJEKTOWANIE WARSTWY WIZUALNEJ GRY\ZADANIA\ZESTAW 2\ZADANIE 2\OPENGL_PROJECT_5_01\RELEASE\STDAFX.OBJ
^D:\ONEDRIVE\STUDIA\PROJEKTOWANIE WARSTWY WIZUALNEJ GRY\ZADANIA\ZESTAW 2\ZADANIE 2\OPENGL_PROJECT_5_01\GL3W.C
D:\ONEDRIVE\STUDIA\PROJEKTOWANIE WARSTWY WIZUALNEJ GRY\ZADANIA\ZESTAW 2\ZADANIE 2\OPENGL_PROJECT_5_01\RELEASE\VC120.PDB
D:\ONEDRIVE\STUDIA\PROJEKTOWANIE WARSTWY WIZUALNEJ GRY\ZADANIA\ZESTAW 2\ZADANIE 2\OPENGL_PROJECT_5_01\RELEASE\GL3W.OBJ
^D:\ONEDRIVE\STUDIA\PROJEKTOWANIE WARSTWY WIZUALNEJ GRY\ZADANIA\ZESTAW 2\ZADANIE 2\OPENGL_PROJECT_5_01\MAIN.CPP|D:\ONEDRIVE\STUDIA\PROJEKTOWANIE WARSTWY WIZUALNEJ GRY\ZADANIA\ZESTAW 2\ZADANIE 2\OPENGL_PROJECT_5_01\MESH.CPP|D:\ONEDRIVE\STUDIA\PROJEKTOWANIE WARSTWY WIZUALNEJ GRY\ZADANIA\ZESTAW 2\ZADANIE 2\OPENGL_PROJECT_5_01\SHADER.CPP
D:\ONEDRIVE\STUDIA\PROJEKTOWANIE WARSTWY WIZUALNEJ GRY\ZADANIA\ZESTAW 2\ZADANIE 2\OPENGL_PROJECT_5_01\RELEASE\VC120.PDB
D:\ONEDRIVE\STUDIA\PROJEKTOWANIE WARSTWY WIZUALNEJ GRY\ZADANIA\ZESTAW 2\ZADANIE 2\OPENGL_PROJECT_5_01\RELEASE\SHADER.OBJ
D:\ONEDRIVE\STUDIA\PROJEKTOWANIE WARSTWY WIZUALNEJ GRY\ZADANIA\ZESTAW 2\ZADANIE 2\OPENGL_PROJECT_5_01\RELEASE\MESH.OBJ
^D:\ONEDRIVE\STUDIA\PROJEKTOWANIE WARSTWY WIZUALNEJ GRY\ZADANIA\ZESTAW 2\ZADANIE 2\OPENGL_PROJECT_5_01\MESH.CPP
D:\ONEDRIVE\STUDIA\PROJEKTOWANIE WARSTWY WIZUALNEJ GRY\ZADANIA\ZESTAW 2\ZADANIE 2\OPENGL_PROJECT_5_01\RELEASE\MESH.OBJ
^D:\ONEDRIVE\STUDIA\PROJEKTOWANIE WARSTWY WIZUALNEJ GRY\ZADANIA\ZESTAW 2\ZADANIE 2\OPENGL_PROJECT_5_01\SHADER.CPP
D:\ONEDRIVE\STUDIA\PROJEKTOWANIE WARSTWY WIZUALNEJ GRY\ZADANIA\ZESTAW 2\ZADANIE 2\OPENGL_PROJECT_5_01\RELEASE\SHADER.OBJ
^D:\ONEDRIVE\STUDIA\PROJEKTOWANIE WARSTWY WIZUALNEJ GRY\ZADANIA\ZESTAW 2\ZADANIE 2\OPENGL_PROJECT_5_01\MAIN.CPP
D:\ONEDRIVE\STUDIA\PROJEKTOWANIE WARSTWY WIZUALNEJ GRY\ZADANIA\ZESTAW 2\ZADANIE 2\OPENGL_PROJECT_5_01\RELEASE\VC120.PDB
D:\ONEDRIVE\STUDIA\PROJEKTOWANIE WARSTWY WIZUALNEJ GRY\ZADANIA\ZESTAW 2\ZADANIE 2\OPENGL_PROJECT_5_01\RELEASE\MAIN.OBJ
